<Hierachy>
  <Item Text="All" Line="0" EndLine="0" EndColumn="0" Pos="0" />
  <Childrens>
    <Hierachy>
      <Item Text="function1()" Line="1" EndLine="42" EndColumn="1" Pos="0" Opcode="Function" />
      <Childrens>
        <Hierachy>
          <Item Text="innerFunction()" Line="30" EndLine="32" EndColumn="5" Pos="4" Opcode="Function" Comment="//Not visible if previous hugeString declaration was throw error" />
        </Hierachy>
        <Hierachy>
          <Item Text="f" Line="34" EndLine="41" EndColumn="5" Pos="12" Opcode="ObjectLiteral" />
          <Childrens>
            <Hierachy>
              <Item Text="testFunction()" Line="39" EndLine="40" EndColumn="9" Pos="22" Opcode="Function" />
            </Hierachy>
          </Childrens>
        </Hierachy>
      </Childrens>
    </Hierachy>
  </Childrens>
</Hierachy>