<Hierachy>
  <Item Text="All" Line="0" EndLine="0" EndColumn="0" Pos="0" />
  <Childrens>
    <Hierachy>
      <Item Text="testObj" Line="1" EndLine="6" EndColumn="1" Pos="14" Opcode="ObjectLiteral" />
      <Childrens>
        <Hierachy>
          <Item Text="OK()" Line="2" EndLine="3" EndColumn="5" Pos="10" Opcode="Function" />
        </Hierachy>
        <Hierachy>
          <Item Text="Cancel()" Line="4" EndLine="5" EndColumn="5" Pos="14" Opcode="Function" />
        </Hierachy>
      </Childrens>
    </Hierachy>
  </Childrens>
</Hierachy>