<Hierachy>
  <Item Text="All" AliasType="Unknown" Line="0" EndLine="0" EndColumn="0" Pos="0" />
  <Childrens>
    <Hierachy>
      <Item Text="?($)" AliasType="Unknown" Line="5" EndLine="131" EndColumn="1" Pos="3" Opcode="Function" />
      <Childrens>
        <Hierachy>
          <Item Text="$.fn.extend&gt;?" AliasType="AnonymousFunctionInParameter" Line="7" EndLine="26" EndColumn="2" Pos="13" Opcode="ObjectLiteral" />
          <Childrens>
            <Hierachy>
              <Item Text="autocomplete(urlOrData,options)" AliasType="Unknown" Line="8" EndLine="17" EndColumn="3" Pos="16" Opcode="Function" />
              <Childrens>
                <Hierachy>
                  <Item Text="options.highlight(value)" AliasType="Unknown" Line="11" EndLine="11" EndColumn="77" Pos="44" Opcode="Function" Comment="// if highlight is set to false, replace it with a do-nothing function" />
                </Hierachy>
                <Hierachy>
                  <Item Text="return.this.each&gt;?()" AliasType="AnonymousFunctionInParameter" Line="13" EndLine="16" EndColumn="4" Pos="20" Opcode="Function" />
                </Hierachy>
              </Childrens>
            </Hierachy>
            <Hierachy>
              <Item Text="result(handler)" AliasType="Unknown" Line="18" EndLine="21" EndColumn="3" Pos="10" Opcode="Function" />
            </Hierachy>
            <Hierachy>
              <Item Text="unautocomplete()" AliasType="Unknown" Line="22" EndLine="25" EndColumn="3" Pos="18" Opcode="Function" />
            </Hierachy>
          </Childrens>
        </Hierachy>
        <Hierachy>
          <Item Text="$.Autocompleter(input,options)" AliasType="Unknown" Line="28" EndLine="76" EndColumn="2" Pos="19" Opcode="Function" />
          <Childrens>
            <Hierachy>
              <Item Text="$.bind(&quot;submit.autocomplete&quot;)&gt;?()" AliasType="AnonymousFunctionInParameter" Line="31" EndLine="38" EndColumn="3" Pos="63" Opcode="Function" Comment="// prevent form submit in opera when selecting with return key" />
            </Hierachy>
            <Hierachy>
              <Item Text="$input.bind&gt;?(event)" AliasType="AnonymousFunctionInParameter" Line="41" EndLine="44" EndColumn="3" Pos="76" Opcode="Function" Comment="// only opera doesn't trigger keydown multiple times while pressed, others don't work with keypress at all" />
            </Hierachy>
            <Hierachy>
              <Item Text="$input.bind.focus&gt;?()" AliasType="AnonymousFunctionInParameter" Line="44" EndLine="49" EndColumn="3" Pos="11" Opcode="Function" Comment="//some code to process key events" />
            </Hierachy>
            <Hierachy>
              <Item Text="$input.bind.focus.blur&gt;?()" AliasType="AnonymousFunctionInParameter" Line="49" EndLine="56" EndColumn="3" Pos="10" Opcode="Function" />
            </Hierachy>
            <Hierachy>
              <Item Text="$input.bind.focus.blur.click&gt;?()" AliasType="AnonymousFunctionInParameter" Line="56" EndLine="63" EndColumn="3" Pos="11" Opcode="Function" />
            </Hierachy>
            <Hierachy>
              <Item Text="selectCurrent()" AliasType="Unknown" Line="66" EndLine="69" EndColumn="3" Pos="2" Opcode="Function" />
            </Hierachy>
            <Hierachy>
              <Item Text="stopLoading()" AliasType="Unknown" Line="71" EndLine="75" EndColumn="3" Pos="2" Opcode="Function" />
            </Hierachy>
            <Hierachy>
              <Item Text="defaults" AliasType="Unknown" Line="78" EndLine="88" EndColumn="2" Pos="28" Opcode="ObjectLiteral" />
              <Childrens>
                <Hierachy>
                  <Item Text="formatItem(row)" AliasType="Unknown" Line="80" EndLine="80" EndColumn="46" Pos="14" Opcode="Function" />
                </Hierachy>
                <Hierachy>
                  <Item Text="formatMatch(row)" AliasType="Unknown" Line="81" EndLine="81" EndColumn="47" Pos="15" Opcode="Function" />
                </Hierachy>
                <Hierachy>
                  <Item Text="highlight(value,term)" AliasType="Unknown" Line="82" EndLine="85" EndColumn="3" Pos="13" Opcode="Function" />
                </Hierachy>
              </Childrens>
            </Hierachy>
            <Hierachy>
              <Item Text="Cache(options)" AliasType="Unknown" Line="90" EndLine="130" EndColumn="2" Pos="25" Opcode="Function" />
              <Childrens>
                <Hierachy>
                  <Item Text="data" AliasType="Unknown" Line="92" EndLine="92" EndColumn="15" Pos="13" Opcode="ObjectLiteral" />
                </Hierachy>
                <Hierachy>
                  <Item Text="matchSubset(s,sub)" AliasType="Unknown" Line="96" EndLine="99" EndColumn="3" Pos="2" Opcode="Function" />
                </Hierachy>
                <Hierachy>
                  <Item Text="populate(excludeDataSet)" AliasType="Unknown" Line="101" EndLine="113" EndColumn="3" Pos="2" Opcode="Function" />
                  <Childrens>
                    <Hierachy>
                      <Item Text="stMatchSets" AliasType="Unknown" Line="103" EndLine="103" EndColumn="23" Pos="21" Opcode="ObjectLiteral" />
                    </Hierachy>
                    <Hierachy>
                      <Item Text="$.each(stMatchSets)&gt;?(i,value)" AliasType="AnonymousFunctionInParameter" Line="106" EndLine="112" EndColumn="4" Pos="23" Opcode="Function" Comment="// add the data items to the cache" />
                    </Hierachy>
                  </Childrens>
                </Hierachy>
                <Hierachy>
                  <Item Text="flush()" AliasType="Unknown" Line="115" EndLine="119" EndColumn="3" Pos="2" Opcode="Function" />
                  <Childrens>
                    <Hierachy>
                      <Item Text="data" AliasType="Unknown" Line="117" EndLine="117" EndColumn="12" Pos="10" Opcode="ObjectLiteral" />
                    </Hierachy>
                  </Childrens>
                </Hierachy>
                <Hierachy>
                  <Item Text="return" AliasType="Unknown" Line="121" EndLine="129" EndColumn="3" Pos="9" Opcode="ObjectLiteral" />
                  <Childrens>
                    <Hierachy>
                      <Item Text="load(q,excludeDataSet)" AliasType="Unknown" Line="125" EndLine="128" EndColumn="4" Pos="9" Opcode="Function" />
                    </Hierachy>
                  </Childrens>
                </Hierachy>
              </Childrens>
            </Hierachy>
          </Childrens>
        </Hierachy>
      </Childrens>
    </Hierachy>
  </Childrens>
</Hierachy>