<Hierachy>
  <Item Text="All" Line="0" EndLine="0" EndColumn="0" Pos="0" />
  <Childrens>
    <Hierachy>
      <Item Text="$(document).ready&gt;?()" Line="3" EndLine="5" EndColumn="1" Pos="18" Opcode="Function" Comment="//Attach on document ready" />
    </Hierachy>
    <Hierachy>
      <Item Text="AttachEvents()" Line="9" EndLine="29" EndColumn="1" Pos="0" Opcode="Function" Comment="// Comment to funtion 1&#xD;&#xA;// This function attaches events to various elements on the page." />
      <Childrens>
        <Hierachy>
          <Item Text="$('#btnSubmit').click&gt;?()" Line="10" EndLine="12" EndColumn="5" Pos="26" Opcode="Function" />
        </Hierachy>
        <Hierachy>
          <Item Text="$('#btnSearchWithL…rIsHere').click&gt;?()" Line="14" EndLine="16" EndColumn="5" Pos="73" Opcode="Function" />
        </Hierachy>
        <Hierachy>
          <Item Text="$('#btnBack').click&gt;?()" Line="18" EndLine="20" EndColumn="5" Pos="24" Opcode="Function" />
        </Hierachy>
        <Hierachy>
          <Item Text="$('.btnBack').each&gt;?(index,elt)" Line="22" EndLine="24" EndColumn="5" Pos="23" Opcode="Function" />
        </Hierachy>
        <Hierachy>
          <Item Text="$('.btnBack').eq(0).bind('mousedown')&gt;?()" Line="26" EndLine="28" EndColumn="5" Pos="42" Opcode="Function" />
        </Hierachy>
      </Childrens>
    </Hierachy>
  </Childrens>
</Hierachy>